20
Lattice="4.804579738635842 -4.279821126503371e-07 -6.636741967025868e-06 -9.361811660047226e-07 10.623981902452416 -2.047612103035666e-05 -2.4726570225581207e-05 -3.4823417017081486e-05 17.93811812502396" Properties=species:S:1:pos:R:3 pbc="T T T"
Cs       3.60342988       6.13534838       3.06018509
Cs       1.20112420       4.48859827      14.87790592
Cs       3.60342640       0.82334268       5.90885090
Cs       1.20112768       9.80060397      12.02924012
Pb       1.20113375       6.98623594       7.87843624
Pb       3.60342032       3.63771072      10.05965489
Pb       1.20114358       1.67419955       1.09058449
Pb       3.60341050       8.94974711      16.84750642
I        3.60342138       8.85573991       8.99990332
I        1.20113269       1.76820673       8.93818768
I        3.60340951       3.54376317      17.90723022
I        1.20114457       7.08018347       0.03086082
I        1.20112938       5.66908264      10.99823972
I        3.60342470       4.95486399       6.93985126
I        1.20112319       0.35707556      15.90893076
I        3.60343089      10.26687106       2.02916028
I        1.20113722       8.42637674       5.15881780
I        3.60341686       2.19756994      12.77927315
I        1.20113958       3.11440826       3.81024197
I        3.60341450       7.50953842      14.12784911
