    5.000000000000000e-03    6.770050838912154e+00    7.198781815410912e-01    5.945386491392182e+00    4.995489093585919e-01    1.570191419769576e-01    0.000000000000000e+00    0.000000000000000e+00    0.000000000000000e+00    0.000000000000000e+00    0.000000000000000e+00
    1.500000000000000e-02    3.888414358845540e+00    6.811662218858338e-01    2.970974385794035e+00    4.624049008561281e-01   -7.501613187299726e-03                      inf                      inf                      inf                      inf                      inf
    2.500000000000000e-02    3.301285080896392e+00    6.423386963423412e-01    2.358303593717038e+00    4.170430852362373e-01   -2.611970105081492e-02                      inf                      inf                      inf                      inf                     -nan
    3.500000000000000e-02    3.933025679760226e+00    5.946357931088296e-01    3.015268530722737e+00    3.739423785340221e-01   -5.368794501241383e-03                      inf                      inf                      inf                      inf                     -nan
    4.500000000000000e-02    3.172983615838543e+00    5.270735453761228e-01    2.233729702925493e+00    3.221218741154768e-01    4.338157069406208e-02                      inf                      inf                      inf                      inf                     -nan
    5.500000000000000e-02    3.528284159075584e+00    4.697063278450478e-01    2.684311576843685e+00    2.702298828712746e-01    3.492070986109319e-02                      inf                      inf                      inf                      inf                     -nan
    6.500000000000000e-02    2.790313767749727e+00    4.220649218780549e-01    1.769155853675417e+00    2.258665281242900e-01   -9.845447506362107e-03                      inf                      inf                      inf                      inf                     -nan
    7.500000000000000e-02    2.628364829685036e+00    3.873418608534649e-01    1.649202988379746e+00    2.033316694718653e-01   -2.142831403698947e-02                      inf                      inf                      inf                      inf                     -nan
    8.500000000000001e-02    3.524473845077125e+00    3.630517551381306e-01    2.661571473820270e+00    1.944700315992694e-01    2.029574971250031e-02                      inf                      inf                      inf                      inf                     -nan
    9.500000000000000e-02    3.418233861056715e+00    3.530739392241261e-01    2.437096828626621e+00    2.004016919214917e-01    3.845741007549975e-02                      inf                      inf                      inf                      inf                     -nan
    1.050000000000000e-01    3.322237801346053e+00    3.642070635934623e-01    2.414010785322672e+00    2.157386512110633e-01    9.188159399897930e-03                      inf                      inf                      inf                      inf                     -nan
    1.150000000000000e-01    3.608481616068521e+00    3.804636880233285e-01    2.655201900939261e+00    2.284070722910674e-01   -2.134579298305028e-02                      inf                      inf                      inf                      inf                     -nan
    1.250000000000000e-01    3.755700450956684e+00    4.007302223485167e-01    2.696412509325916e+00    2.430498938978163e-01    8.423146523739726e-03                      inf                      inf                      inf                      inf                     -nan
    1.350000000000000e-01    3.719437468146829e+00    4.303573974851520e-01    2.912098286716814e+00    2.736333511606124e-01    2.918025587353771e-02                      inf                      inf                      inf                      inf                     -nan
    1.450000000000000e-01    3.642274221366874e+00    4.698997521268681e-01    2.649444410475978e+00    2.950414030068620e-01    1.858416048333877e-02                      inf                      inf                      inf                      inf                     -nan
    1.550000000000000e-01    3.499053507763809e+00    4.981048975812802e-01    2.625042456878488e+00    3.084978574026647e-01   -1.204173726487123e-02                      inf                      inf                      inf                      inf                     -nan
    1.650000000000000e-01    3.279712002801892e+00    5.161383137660750e-01    2.466693037921677e+00    3.232760547187282e-01    2.530663786574960e-03                      inf                      inf                      inf                      inf                     -nan
    1.750000000000000e-01    3.301706035033063e+00    5.311318855215649e-01    2.403162486311793e+00    3.329968484776297e-01    2.575085363119785e-02                      inf                      inf                      inf                      inf                     -nan
    1.850000000000000e-01    3.225377347138615e+00    5.385692242938647e-01    2.495323018950322e+00    3.313722577415743e-01    1.657604349863757e-02                      inf                      inf                      inf                      inf                     -nan
    1.950000000000000e-01    3.010393160824365e+00    5.391406349038375e-01    2.124247619179607e+00    3.168943243293974e-01   -4.597398224439085e-03                      inf                      inf                      inf                      inf                     -nan
